{
    "prepare_queue": {
        "installed": [],
        "uninstalled": []
    },
    "config_munge": {
        "files": {
            "res/xml/config.xml": {
                "parents": {
                    "/widget": [
                        {
                            "xml": "<feature name=\"BLE\"><param name=\"android-package\" value=\"com.megster.cordova.ble.central.BLECentralPlugin\" /></feature>",
                            "count": 1
                        }
                    ],
                    "/*": [
                        {
                            "xml": "<feature name=\"Whitelist\"><param name=\"android-package\" value=\"org.apache.cordova.whitelist.WhitelistPlugin\" /><param name=\"onload\" value=\"true\" /></feature>",
                            "count": 1
                        }
                    ]
                }
            },
            "AndroidManifest.xml": {
                "parents": {
                    "/manifest": [
                        {
                            "xml": "<uses-permission android:name=\"android.permission.ACCESS_COARSE_LOCATION\" />",
                            "count": 1
                        },
                        {
                            "xml": "<uses-permission android:name=\"android.permission.BLUETOOTH\" />",
                            "count": 1
                        },
                        {
                            "xml": "<uses-permission android:name=\"android.permission.BLUETOOTH_ADMIN\" />",
                            "count": 1
                        }
                    ]
                }
            }
        }
    },
    "installed_plugins": {
        "cordova-plugin-compat": {
            "PACKAGE_NAME": "edu.teco.wilka"
        },
        "cordova-plugin-ble-central": {
            "PACKAGE_NAME": "edu.teco.wilka"
        },
        "cordova-plugin-whitelist": {
            "PACKAGE_NAME": "edu.teco.wilka"
        }
    },
    "dependent_plugins": {},
    "modules": [
        {
            "id": "cordova-plugin-ble-central.ble",
            "file": "plugins/cordova-plugin-ble-central/www/ble.js",
            "pluginId": "cordova-plugin-ble-central",
            "clobbers": [
                "ble"
            ]
        }
    ],
    "plugin_metadata": {
        "cordova-plugin-compat": "1.1.0",
        "cordova-plugin-ble-central": "1.1.4",
        "cordova-plugin-whitelist": "1.3.0"
    }
}